"order_product_id";"order_id";"product_id";"name";"model";"quantity";"price";"total";"tax";"reward";"zak_price"
"3366";"11";"691";"MyProtein - Impact Whey 2500g blueberry ";;"1";"110.3704";"110.3704";"0.0000";"0";"102.0000"
"3374";"11";"1311";"IronFlex - Creatine Monohydrate 500g ";;"2";"17.2840";"34.4444";"0.0000";"0";"11.0000"
"3375";"11";"1311";"IronFlex - Creatine Monohydrate 500g ";;"1";"17.2840";"17.2840";"0.0000";"0";"11.0000"
"3376";"11";"1311";"IronFlex - Creatine Monohydrate 500g ";;"5";"17.2840";"86.2963";"0.0000";"0";"11.0000"
"3377";"11";"1311";"IronFlex - Creatine Monohydrate 500g ";;"1";"17.2840";"17.2840";"0.0000";"0";"11.0000"
"3378";"11";"1311";"IronFlex - Creatine Monohydrate 500g ";;"1";"17.2840";"17.2840";"0.0000";"0";"11.0000"
"3379";"11";"1311";"IronFlex - Creatine Monohydrate 500g ";;"2";"17.2840";"34.4444";"0.0000";"0";"11.0000"
"3380";"11";"1386";"IronFlex - BCAA 2-1-1 Performance";;"2";"29.5062";"58.8889";"0.0000";"0";"23.0000"
"3381";"11";"1386";"IronFlex - BCAA 2-1-1 Performance";;"1";"29.5062";"29.5062";"0.0000";"0";"23.0000"
"3382";"11";"1386";"IronFlex - BCAA 2-1-1 Performance";;"1";"29.5062";"29.5062";"0.0000";"0";"23.0000"
"3383";"11";"1386";"IronFlex - BCAA 2-1-1 Performance";;"1";"29.5062";"29.5062";"0.0000";"0";"23.0000"
"3384";"11";"1386";"IronFlex - BCAA 2-1-1 Performance";;"2";"29.5062";"58.8889";"0.0000";"0";"23.0000"
"3385";"11";"1386";"IronFlex - BCAA 2-1-1 Performance";;"2";"29.5062";"58.8889";"0.0000";"0";"23.0000"
"3386";"11";"1386";"IronFlex - BCAA 2-1-1 Performance";;"2";"29.5062";"58.8889";"0.0000";"0";"23.0000"
"3387";"11";"1386";"IronFlex - BCAA 2-1-1 Performance";;"1";"29.5062";"29.5062";"0.0000";"0";"23.0000"
"3388";"11";"1391";"MyProtein - Impact Whey 2500g strawberry shortcake";;"1";"110.3704";"110.3704";"0.0000";"0";"102.0000"
"3389";"11";"1393";"MyProtein - Impact Whey 2500g vanilla cookie";;"1";"110.3704";"110.3704";"0.0000";"0";"102.0000"
"3363";"10";"162";"ActivLab - Soja Pro 750g vanilla ";"12314";"1";"21.9753";"21.9753";"0.0000";"0";"19.0000"
"3364";"10";"163";"ActivLab - Soja Pro 2000g chocolate ";"12314";"1";"52.2222";"52.2222";"0.0000";"0";"48.0000"
"3365";"10";"165";"ActivLab - Soja Pro 2000g strawberry ";"12314";"1";"52.2222";"52.2222";"0.0000";"0";"48.0000"
"3275";"9";"97";"Extrifit - Carnitin 120000mg Liquid 1000ml apricot ";"12314";"1";"40.8642";"40.8642";"0.0000";"0";"37.4000"
"3276";"9";"99";"Extrifit - Carnitin 120000mg Liquid 1000ml majito";"2090";"1";"40.8642";"40.8642";"0.0000";"0";"37.4000"
"3277";"9";"108";"ActivLab - BCAA Xtra instant 500g cola ";"12314";"1";"44.1975";"44.1975";"0.0000";"0";"38.0000"
"3278";"9";"116";"ActivLab - BCAA Xtra instant 500g orange ";"12314";"1";"44.1975";"44.1975";"0.0000";"0";"38.0000"
"3279";"9";"128";"ActivLab - Creatine Powder  500g Natural ";"12314";"1";"21.4815";"21.4815";"0.0000";"0";"18.0000"
"3280";"9";"166";"ActivLab - Mass Up 1200g bananа ";"12314";"4";"17.1605";"68.7654";"0.0000";"0";"13.0000"
"3281";"9";"172";"ActivLab - Mass Up 1200g vanilla";"12314";"1";"17.1605";"17.1605";"0.0000";"0";"13.0000"
"3282";"9";"179";"ActivLab - Mass Up 3500g vanilla ";"12314";"2";"45.4321";"90.8642";"0.0000";"0";"36.0000"
"3283";"9";"182";"ActivLab - Mass Up 3500g strawberry";"12314";"2";"45.4321";"90.8642";"0.0000";"0";"36.0000"
"3284";"9";"198";"ActivLab - BCAA Xtra Shot ( 1x 80ml ) orange";"12314";"12";"1.8519";"21.6049";"0.0000";"0";"4.4000"
"3285";"9";"208";"Extrifit - Carnitin 120000mg Liquid 1000ml lemon orange ";"12314";"1";"40.8642";"40.8642";"0.0000";"0";"37.4000"
"3286";"9";"209";"Extrifit - Carnitin 120000mg Liquid 1000ml cherry ";"12314";"1";"40.8642";"40.8642";"0.0000";"0";"37.4000"
"3287";"9";"210";"Extrifit - Carnitin 120000mg Liquid 1000ml mandarine";"12314";"1";"40.8642";"40.8642";"0.0000";"0";"37.4000"
"3288";"9";"234";"Gold Star - Black Annis DMAA 300g green apple ";"12314";"1";"68.8889";"68.8889";"0.0000";"0";"72.0000"
"3289";"9";"239";"Gold Star - Black Annis DMAA 300g fruit punsh ";"12314";"1";"68.8889";"68.8889";"0.0000";"0";"72.0000"
"3290";"9";"291";"Megabol - Testosterol 250  30caps";"12314";"1";"11.6049";"11.6049";"0.0000";"0";"10.0000"
"3291";"9";"294";"Megabol - Gainer 737 (30% protein) 3000g strawberry ";"12314";"1";"46.2963";"46.2963";"0.0000";"0";"43.0000"
"3292";"9";"295";"Megabol - Gainer 737 (30% protein) 3000g raspberry ";"12314";"1";"46.2963";"46.2963";"0.0000";"0";"43.0000"
"3293";"9";"297";"Megabol - Gainer 737 (30% protein) 3000g cappuccino ";"12314";"1";"46.2963";"46.2963";"0.0000";"0";"43.0000"
"3294";"9";"367";"OstroVit - BCAA 2-1-1 500g lemon";"66334";"2";"37.4074";"74.9383";"0.0000";"0";"32.0000"
"3295";"9";"368";"OstroVit - BCAA 2-1-1 500g orange";"6611";"2";"37.4074";"74.9383";"0.0000";"0";"32.0000"
"3296";"9";"370";"OstroVit - BCAA 2-1-1 500g natural";"4112";"2";"37.4074";"74.9383";"0.0000";"0";"32.0000"
"3297";"9";"388";"OstroVit - BCAA Instant 400g green apple ";"1952";"1";"38.6420";"38.6420";"0.0000";"0";"35.0000"
"3298";"9";"389";"OstroVit - BCAA Instant 400g cola";"1953";"1";"38.6420";"38.6420";"0.0000";"0";"35.0000"
"3299";"9";"497";"OstroVit - Creatine 500g watermelon";;"3";"19.0123";"56.9136";"0.0000";"0";"16.5000"
"3300";"9";"553";"IronFlex - WPC EDGE 900g white chocolate ";;"1";"36.6667";"36.6667";"0.0000";"0";"26.0000"
"3301";"9";"554";"IronFlex - WPC EDGE 900g vanilla ice cream ";;"1";"36.6667";"36.6667";"0.0000";"0";"26.0000"
"3302";"9";"555";"IronFlex - WPC EDGE 900g strawberry vanilla ";;"1";"36.6667";"36.6667";"0.0000";"0";"26.0000"
"3303";"9";"556";"IronFlex - WPC EDGE 900g rasberry ";;"1";"36.6667";"36.6667";"0.0000";"0";"26.0000"
"3304";"9";"557";"IronFlex - WPC EDGE 900g pistachio ";;"1";"36.6667";"36.6667";"0.0000";"0";"26.0000"
"3305";"9";"559";"IronFlex - WPC EDGE 900g сreme brulee ";;"1";"36.6667";"36.6667";"0.0000";"0";"26.0000"
"3306";"9";"560";"IronFlex - WPC EDGE 900g сhocolate raspberry ";;"1";"36.6667";"36.6667";"0.0000";"0";"26.0000"
"3307";"9";"562";"IronFlex - WPC EDGE 900g banana vanilla ";;"1";"36.6667";"36.6667";"0.0000";"0";"26.0000"
"3308";"9";"563";"IronFlex - WPC EDGE 900g banana strawberry ";;"1";"36.6667";"36.6667";"0.0000";"0";"26.0000"
"3309";"9";"564";"IronFlex - WPC EDGE 900g banana apple ";;"1";"36.6667";"36.6667";"0.0000";"0";"26.0000"
"3310";"9";"593";"Blastex - Bcaa Xline 300g lemon ";;"1";"23.0864";"23.0864";"0.0000";"0";"22.5000"
"3311";"9";"594";"Blastex - Bcaa Xline 300g orange ";;"1";"23.0864";"23.0864";"0.0000";"0";"22.5000"
"3312";"9";"595";"Blastex - Bcaa Xline 300g grapefruit ";;"1";"23.0864";"23.0864";"0.0000";"0";"22.5000"
"3313";"9";"596";"Blastex - Bcaa Xline 300g blackcurrant";;"2";"23.0864";"46.2963";"0.0000";"0";"22.5000"
"3314";"9";"597";"Blastex - Bcaa Xline 300g cherry ";;"2";"23.0864";"46.2963";"0.0000";"0";"22.5000"
"3315";"9";"598";"Blastex - Bcaa Xline 300g strawberry ";;"1";"23.0864";"23.0864";"0.0000";"0";"22.5000"
"3316";"9";"600";"Blastex - Bcaa Xline 300g apple ";;"1";"23.0864";"23.0864";"0.0000";"0";"22.5000"
"3317";"9";"601";"Blastex - Bcaa Xline 300g pineapple ";;"2";"23.0864";"46.2963";"0.0000";"0";"22.5000"
"3318";"9";"608";"Blastex - Bcaa Xline 1000g cola ";;"1";"66.2963";"66.2963";"0.0000";"0";"64.5000"
"3319";"9";"609";"Blastex - Glutamine 300g apple ";;"1";"18.2716";"18.2716";"0.0000";"0";"17.3000"
"3320";"9";"613";"Blastex - Glutamine 300g blackcurrant ";;"1";"18.2716";"18.2716";"0.0000";"0";"17.3000"
"3321";"9";"623";"Innovative Labs - Hellfire 100caps ";;"2";"71.9753";"143.9506";"0.0000";"0";"66.0000"
"3322";"9";"633";"Scitec - 100% Whey Protein Prof 2820g chocolate";;"2";"144.4444";"288.8889";"0.0000";"0";"148.0000"
"3323";"9";"821";"Kevin Levrone - Iso Whey 2270g banana peach ";;"1";"142.2222";"142.2222";"0.0000";"0";"126.0000"
"3324";"9";"822";"Kevin Levrone - Whey Supreme 2270g сookies white cream ";;"1";"117.0370";"117.0370";"0.0000";"0";"103.0000"
"3325";"9";"823";"Kevin Levrone - Iso Whey 2270g chocolate ";;"1";"142.2222";"142.2222";"0.0000";"0";"126.0000"
"3326";"9";"826";"Kevin Levrone - Whey Supreme 2270g chocolate ";;"1";"117.0370";"117.0370";"0.0000";"0";"103.0000"
"3327";"9";"828";"Kevin Levrone - Whey Supreme 2270g white chocolate ";;"1";"117.0370";"117.0370";"0.0000";"0";"103.0000"
"3328";"9";"830";"Kevin Levrone - Whey Supreme 2270g strawberry ";;"1";"117.0370";"117.0370";"0.0000";"0";"103.0000"
"3329";"9";"831";"Kevin Levrone - Whey Supreme 2270g lemon cheesecake ";;"1";"117.0370";"117.0370";"0.0000";"0";"103.0000"
"3330";"9";"833";"Kevin Levrone - Whey Supreme 2270g raspberry ";;"1";"117.0370";"117.0370";"0.0000";"0";"103.0000"
"3331";"9";"835";"Kevin Levrone - Pump 360g kiwi ";;"1";"49.5062";"49.5062";"0.0000";"0";"44.0000"
"3332";"9";"836";"Kevin Levrone - Pump 360g strawberry pineapple ";;"1";"49.5062";"49.5062";"0.0000";"0";"44.0000"
"3333";"9";"839";"MyProtein - Milk Protein Smooth 4000g vanilla";;"1";"151.6049";"151.6049";"0.0000";"0";"138.0000"
"3334";"9";"840";"MyProtein - Milk Protein Smooth 4000g strawberry cream";;"1";"151.6049";"151.6049";"0.0000";"0";"138.0000"
"3335";"9";"841";"MyProtein - Milk Protein Smooth 4000g chocolate smooth";;"3";"151.6049";"454.9383";"0.0000";"0";"138.0000"
"3336";"9";"853";"Kevin Levrone - Levro mono 300g ";;"1";"22.7160";"22.7160";"0.0000";"0";"21.0000"
"3337";"9";"897";"OstroVit - WPC 80.eu Instant 2270g strawberry shake ";;"1";"95.0617";"95.0617";"0.0000";"0";"86.0000"
"3338";"9";"898";"OstroVit - WPC 80.eu Instant  2270g banana strawberry";;"1";"95.0617";"95.0617";"0.0000";"0";"86.0000"
"3339";"9";"900";"OstroVit - WPC 80.eu Instant  2270g french vanilla ";;"1";"95.0617";"95.0617";"0.0000";"0";"86.0000"
"3340";"9";"902";"OSTROVIT - WPC 80.eu Instant 2270g  coconut cream ";;"1";"95.0617";"95.0617";"0.0000";"0";"86.0000"
"3341";"9";"905";"OstroVit - WPC 80 Standart EU 900g creame brulle ";;"1";"37.4074";"37.4074";"0.0000";"0";"34.0000"
"3342";"9";"906";"OstroVit - WPC 80 Standart EU 900g penaut butter ";;"2";"37.4074";"74.6914";"0.0000";"0";"34.0000"
"3343";"9";"909";"OstroVit - WPC 80 Standart EU 900g apple pie";;"1";"37.4074";"37.4074";"0.0000";"0";"34.0000"
"3344";"9";"914";"OstroVit - WPC 80 Standart EU 900g white chocolate";;"3";"37.4074";"112.0988";"0.0000";"0";"34.0000"
"3345";"9";"917";"OstroVit - WPC 80 Standart EU 900g tiramisu ";;"1";"37.4074";"37.4074";"0.0000";"0";"34.0000"
"3346";"9";"933";"Kevin Levrone - Levrone BCAA 4:1:1 300 tabs";;"2";"49.0123";"97.9012";"0.0000";"0";"44.0000"
"3347";"9";"935";"Mex - Size MAX 6800g Vanilla";;"1";"143.9506";"143.9506";"0.0000";"0";"135.0000"
"3348";"9";"937";"Mex - Size MAX 6800g Chocolate";;"3";"143.9506";"431.9753";"0.0000";"0";"135.0000"
"3349";"9";"946";"Extrifit - BCAA 2-1-1  240tab  ";;"2";"20.7407";"41.3580";"0.0000";"0";"23.0000"
"3350";"9";"973";"Vision - Carnitine l-160000 1200ml raspberry ";;"1";"45.9259";"45.9259";"0.0000";"0";"45.0000"
"3351";"9";"975";"Vision - Carnitine l-160000 1200ml blackcurrant ";;"1";"45.9259";"45.9259";"0.0000";"0";"45.0000"
"3352";"9";"976";"Vision - Carnitine l-160000 1200ml cherry ";;"1";"45.9259";"45.9259";"0.0000";"0";"45.0000"
"3353";"9";"980";"Vision - Whey Gainer 1000g Сoffee";;"2";"18.0247";"36.0494";"0.0000";"0";"15.5000"
"3354";"9";"983";"Vision - Whey Gainer 1000g Сoconut ";;"2";"18.0247";"36.0494";"0.0000";"0";"15.5000"
"3355";"9";"985";"Vision - Whey Gainer 1000g Сhocolate ";;"2";"18.0247";"36.0494";"0.0000";"0";"15.5000"
"3356";"9";"986";"Vision - Whey Gainer 1000g Strawberry ";;"2";"18.0247";"36.0494";"0.0000";"0";"15.5000"
"3357";"9";"1003";"Scitec - 100% Whey Protein Prof 2820g chocolate hazelnut";;"2";"144.4444";"288.8889";"0.0000";"0";"148.0000"
"3358";"9";"1089";"Vision - Carnitine Large 300caps + carbo free";;"1";"66.2963";"66.2963";"0.0000";"0";"69.5000"
"3359";"9";"1180";"OstroVit - Waxymaize 1000g chocolate ";;"2";"15.4321";"30.7407";"0.0000";"0";"11.6000"
"3360";"9";"1379";"ActivLab - Carnitin Shot ( 1 x 80ml )";;"12";"1.8519";"21.6049";"0.0000";"0";"3.0000"
"3361";"9";"1399";"Kevin Levrone - Levro Supreme Bar 80g milk chocolate peanut";;"12";"4.5679";"54.5679";"0.0000";"0";"1.0000"
"3362";"9";"1407";"OstroVit - Coconut Oil ( Olej Kokosowy ) 900g ";;"3";"19.6296";"58.8889";"0.0000";"0";"15.5000"
"3271";"8";"1186";"IronFlex - BCAA Performance 2-1-1 400g watermelon";;"1";"32.0988";"32.0988";"0.0000";"0";"23.0000"
"3272";"8";"1188";"IronFlex - BCAA Performance 2-1-1 400g orange";;"1";"32.0988";"32.0988";"0.0000";"0";"23.0000"
"3273";"8";"1206";"IronFlex - BCAA Ultimate 400g tropical";;"1";"36.7901";"36.7901";"0.0000";"0";"28.0000"
"3274";"8";"1211";"IronFlex - BCAA Ultimate 400g fruit punch";;"1";"36.7901";"36.7901";"0.0000";"0";"28.0000"
"3234";"7";"171";"ActivLab - Mass Up 1200g chocolate ";"12314";"1";"17.1605";"17.1605";"0.0000";"0";"13.0000"
"3235";"7";"172";"ActivLab - Mass Up 1200g vanilla";"12314";"1";"17.1605";"17.1605";"0.0000";"0";"13.0000"
"3236";"7";"173";"ActivLab - Mass Up 1200g strawberry ";"12314";"1";"17.1605";"17.1605";"0.0000";"0";"13.0000"
"3237";"7";"221";"Nutrend - Flexit Drink 400g ";"1516";"2";"1.8519";"3.7037";"0.0000";"0";"34.0000"
"3238";"7";"221";"Nutrend - Flexit Drink 400g ";"1516";"2";"1.8519";"3.7037";"0.0000";"0";"34.0000"
"3239";"7";"221";"Nutrend - Flexit Drink 400g ";"1516";"2";"1.8519";"3.7037";"0.0000";"0";"34.0000"
"3240";"7";"223";"FA - Gallon Hydrator FA 2,2l blue";"12314";"2";"21.9753";"43.9506";"0.0000";"0";"16.5000"
"3241";"7";"294";"Megabol - Gainer 737 (30% protein) 3000g strawberry ";"12314";"1";"46.2963";"46.2963";"0.0000";"0";"43.0000"
"3242";"7";"295";"Megabol - Gainer 737 (30% protein) 3000g raspberry ";"12314";"1";"46.2963";"46.2963";"0.0000";"0";"43.0000"
"3243";"7";"296";"Megabol - Gainer 737 (30% protein) 3000g сookies cream ";"12314";"3";"46.2963";"139.0123";"0.0000";"0";"43.0000"
"3244";"7";"297";"Megabol - Gainer 737 (30% protein) 3000g cappuccino ";"12314";"3";"46.2963";"139.0123";"0.0000";"0";"43.0000"
"3245";"7";"368";"OstroVit - BCAA 2-1-1 500g orange";"6611";"2";"37.4074";"74.9383";"0.0000";"0";"32.0000"
"3246";"7";"370";"OstroVit - BCAA 2-1-1 500g natural";"4112";"5";"37.4074";"187.1605";"0.0000";"0";"32.0000"
"3247";"7";"372";"OstroVit - BCAA 8-1-1 400g orange";"3456";"1";"35.5556";"35.5556";"0.0000";"0";"31.0000"
"3248";"7";"376";"OstroVit - BCAA + Glutamine 500g natural";"98277";"5";"37.4074";"187.1605";"0.0000";"0";"33.0000"
"3249";"7";"434";"OstroVit - Micellar Casein 700g cookies cream";;"2";"31.2346";"62.5926";"0.0000";"0";"27.0000"
"3250";"7";"435";"OstroVit - Micellar Casein 700g coconut cream";;"2";"31.2346";"62.5926";"0.0000";"0";"27.0000"
"3251";"7";"437";"OstroVit - Micellar Casein 700g wild strawberry";;"2";"31.2346";"62.5926";"0.0000";"0";"27.0000"
"3252";"7";"470";"Scitec - Shaker New 500ml orange";;"2";"7.6543";"15.3086";"0.0000";"0";"6.6500"
"3253";"7";"473";"Scitec - Shaker New 500ml red";;"2";"7.6543";"15.3086";"0.0000";"0";"6.6500"
"3254";"7";"474";"Scitec - Shaker New 500ml whit";;"2";"7.6543";"15.3086";"0.0000";"0";"6.6500"
"3255";"7";"475";"Scitec - Shaker New 500ml yellow";;"2";"7.6543";"15.3086";"0.0000";"0";"6.6500"
"3256";"7";"478";"Scitec - Shaker New 500ml pink";;"2";"7.6543";"15.3086";"0.0000";"0";"6.6500"
"3257";"7";"552";"IronFlex - Shaker  500ml transporent";;"20";"6.0494";"120.6173";"0.0000";"0";"5.0000"
"3258";"7";"633";"Scitec - 100% Whey Protein Prof 2820g chocolate";;"14";"144.4444";"2022.3457";"0.0000";"0";"148.0000"
"3259";"7";"821";"Kevin Levrone - Iso Whey 2270g banana peach ";;"2";"142.2222";"284.4444";"0.0000";"0";"126.0000"
"3260";"7";"822";"Kevin Levrone - Whey Supreme 2270g сookies white cream ";;"3";"117.0370";"350.9877";"0.0000";"0";"103.0000"
"3261";"7";"823";"Kevin Levrone - Iso Whey 2270g chocolate ";;"1";"142.2222";"142.2222";"0.0000";"0";"126.0000"
"3262";"7";"824";"Kevin Levrone - Iso Whey 2270g vanilla ";;"1";"142.2222";"142.2222";"0.0000";"0";"126.0000"
"3263";"7";"826";"Kevin Levrone - Whey Supreme 2270g chocolate ";;"1";"117.0370";"117.0370";"0.0000";"0";"103.0000"
"3264";"7";"828";"Kevin Levrone - Whey Supreme 2270g white chocolate ";;"1";"117.0370";"117.0370";"0.0000";"0";"103.0000"
"3265";"7";"854";"Kevin Levrone - LevroTest Booster 120tab ";;"8";"60.2469";"482.3457";"0.0000";"0";"56.0000"
"3266";"7";"905";"OstroVit - WPC 80 Standart EU 900g creame brulle ";;"4";"37.4074";"149.3827";"0.0000";"0";"34.0000"
"3267";"7";"908";"OstroVit - WPC 80 Standart EU 900g bubble gum ";;"1";"37.4074";"37.4074";"0.0000";"0";"34.0000"
"3268";"7";"917";"OstroVit - WPC 80 Standart EU 900g tiramisu ";;"1";"37.4074";"37.4074";"0.0000";"0";"34.0000"
"3269";"7";"1231";"Kevin Levrone - Iso Whey 2270g snikers";;"1";"142.2222";"142.2222";"0.0000";"0";"126.0000"
"3270";"7";"1429";"Universal Nutrition - Animal Pill Pox black";;"4";"5.4321";"21.9753";"0.0000";"0";"4.5000"
"3197";"6";"179";"ActivLab - Mass Up 3500g vanilla ";"12314";"2";"45.4321";"90.8642";"0.0000";"0";"36.0000"
"3198";"6";"180";"ActivLab - Mass Up 3500g chocolate ";"12314";"2";"45.4321";"90.8642";"0.0000";"0";"36.0000"
"3199";"6";"285";"Fitmax - Therm L-Carnitin 60caps";"12314";"6";"17.7778";"106.9136";"0.0000";"0";"15.5000"
"3200";"6";"407";"OstroVit - Vitamin B complex 90tab ";;"4";"13.0864";"52.2222";"0.0000";"0";"10.5000"
"3201";"6";"481";"OstroVit - Vitamin 100% 90tab";;"4";"17.0370";"68.2716";"0.0000";"0";"14.0000"
"3202";"6";"554";"IronFlex - WPC EDGE 900g vanilla ice cream ";;"2";"36.6667";"73.2099";"0.0000";"0";"26.0000"
"3203";"6";"556";"IronFlex - WPC EDGE 900g rasberry ";;"2";"36.6667";"73.2099";"0.0000";"0";"26.0000"
"3204";"6";"559";"IronFlex - WPC EDGE 900g сreme brulee ";;"2";"36.6667";"73.2099";"0.0000";"0";"26.0000"
"3205";"6";"562";"IronFlex - WPC EDGE 900g banana vanilla ";;"2";"36.6667";"73.2099";"0.0000";"0";"26.0000"
"3206";"6";"633";"Scitec - 100% Whey Protein Prof 2820g chocolate";;"2";"144.4444";"288.8889";"0.0000";"0";"148.0000"
"3207";"6";"905";"OstroVit - WPC 80 Standart EU 900g creame brulle ";;"2";"37.4074";"74.6914";"0.0000";"0";"34.0000"
"3208";"6";"906";"OstroVit - WPC 80 Standart EU 900g penaut butter ";;"2";"37.4074";"74.6914";"0.0000";"0";"34.0000"
"3209";"6";"907";"OstroVit - WPC 80 Standart EU 2270g bubble gum ";;"2";"92.5926";"185.1852";"0.0000";"0";"86.0000"
"3210";"6";"909";"OstroVit - WPC 80 Standart EU 900g apple pie";;"2";"37.4074";"74.6914";"0.0000";"0";"34.0000"
"3211";"6";"912";"OstroVit - WPC 80 Standart EU 900g biscuit dream ";;"2";"37.4074";"74.6914";"0.0000";"0";"34.0000"
"3212";"6";"917";"OstroVit - WPC 80 Standart EU 900g tiramisu ";;"2";"37.4074";"74.6914";"0.0000";"0";"34.0000"
"3213";"6";"1003";"Scitec - 100% Whey Protein Prof 2820g chocolate hazelnut";;"2";"144.4444";"288.8889";"0.0000";"0";"148.0000"
"3221";"6";"1386";"IronFlex - BCAA 2-1-1 Performance";;"2";"29.5062";"58.8889";"0.0000";"0";"23.0000"
"3222";"6";"1386";"IronFlex - BCAA 2-1-1 Performance";;"2";"29.5062";"58.8889";"0.0000";"0";"23.0000"
"3223";"6";"1386";"IronFlex - BCAA 2-1-1 Performance";;"1";"29.5062";"29.5062";"0.0000";"0";"23.0000"
"3224";"6";"1386";"IronFlex - BCAA 2-1-1 Performance";;"1";"29.5062";"29.5062";"0.0000";"0";"23.0000"
"3225";"6";"1386";"IronFlex - BCAA 2-1-1 Performance";;"1";"29.5062";"29.5062";"0.0000";"0";"23.0000"
"3226";"6";"1386";"IronFlex - BCAA 2-1-1 Performance";;"1";"29.5062";"29.5062";"0.0000";"0";"23.0000"
"3227";"6";"1386";"IronFlex - BCAA 2-1-1 Performance";;"2";"29.5062";"58.8889";"0.0000";"0";"23.0000"
"3228";"6";"1386";"IronFlex - BCAA 2-1-1 Performance";;"2";"29.5062";"58.8889";"0.0000";"0";"23.0000"
"3229";"6";"1387";"IronFlex - Glutamine 500g ";;"1";"29.8765";"29.8765";"0.0000";"0";"24.0000"
"3230";"6";"1387";"IronFlex - Glutamine 500g ";;"1";"29.8765";"29.8765";"0.0000";"0";"24.0000"
"3231";"6";"1387";"IronFlex - Glutamine 500g ";;"1";"29.8765";"29.8765";"0.0000";"0";"24.0000"
"3232";"6";"1387";"IronFlex - Glutamine 500g ";;"2";"29.8765";"59.7531";"0.0000";"0";"24.0000"
"3233";"6";"1387";"IronFlex - Glutamine 500g ";;"1";"29.8765";"29.8765";"0.0000";"0";"24.0000"
"3110";"5";"194";"ActivLab - BCAA Xtra Drink 250ml orange ";"12314";"18";"2.2222";"40.4938";"0.0000";"0";"1.6500"
"3111";"5";"195";"ActivLab - BCAA Xtra Drink Energy 250ml";"12314";"18";"2.2222";"40.4938";"0.0000";"0";"1.6500"
"3112";"5";"211";"FA - Spider Shaker Cross Core 500ml";"12314";"2";"18.2716";"36.5432";"0.0000";"0";"16.0000"
"3113";"5";"221";"Nutrend - Flexit Drink 400g ";"1516";"4";"1.8519";"7.5309";"0.0000";"0";"34.0000"
"3114";"5";"221";"Nutrend - Flexit Drink 400g ";"1516";"4";"1.8519";"7.5309";"0.0000";"0";"34.0000"
"3115";"5";"221";"Nutrend - Flexit Drink 400g ";"1516";"4";"1.8519";"7.5309";"0.0000";"0";"34.0000"
"3116";"5";"228";"Cloma Pharma - China white 25 100caps ";"12314";"4";"59.5062";"237.9012";"0.0000";"0";"55.0000"
"3117";"5";"229";"Cloma Pharma - Red WAPS 75cap";"12314";"1";"59.5062";"59.5062";"0.0000";"0";"55.0000"
"3118";"5";"231";"Cloma Pharma - Methyldrene 25 Elite 100caps ";"12314";"1";"59.5062";"59.5062";"0.0000";"0";"55.0000"
"3119";"5";"233";"Cloma Pharma - Black Spider 100cap ";"12314";"3";"59.5062";"178.5185";"0.0000";"0";"55.0000"
"3120";"5";"246";"Gold Star - EPH Bomb 60caps";"12314";"10";"39.2593";"392.3457";"0.0000";"0";"35.8000"
"3121";"5";"282";"Fitmax - Green coffee L-Carnitine 60caps ";"12314";"2";"17.7778";"35.6790";"0.0000";"0";"15.5000"
"3122";"5";"285";"Fitmax - Therm L-Carnitin 60caps";"12314";"1";"17.7778";"17.7778";"0.0000";"0";"15.5000"
"3123";"5";"367";"OstroVit - BCAA 2-1-1 500g lemon";"66334";"1";"37.4074";"37.4074";"0.0000";"0";"32.0000"
"3124";"5";"368";"OstroVit - BCAA 2-1-1 500g orange";"6611";"1";"37.4074";"37.4074";"0.0000";"0";"32.0000"
"3125";"5";"370";"OstroVit - BCAA 2-1-1 500g natural";"4112";"1";"37.4074";"37.4074";"0.0000";"0";"32.0000"
"3126";"5";"387";"OstroVit - BCAA Instant 400g mango";"1951";"1";"38.6420";"38.6420";"0.0000";"0";"35.0000"
"3127";"5";"388";"OstroVit - BCAA Instant 400g green apple ";"1952";"1";"38.6420";"38.6420";"0.0000";"0";"35.0000"
"3128";"5";"399";"OstroVit - Pump Pre-Workout 500g lemon";;"2";"49.0123";"98.1481";"0.0000";"0";"45.0000"
"3129";"5";"419";"OstroVit - Collagen 90 tabs";;"2";"17.7778";"35.4321";"0.0000";"0";"14.0000"
"3131";"5";"428";"Mars - Proein Bar 18 x 57g";;"1";"130.3704";"130.3704";"0.0000";"0";"135.0000"
"3132";"5";"429";"Bounty - Protein Bar 18 х 57g";;"1";"130.3704";"130.3704";"0.0000";"0";"135.0000"
"3133";"5";"430";"MilkyWay - Protein Bar Baton 18 X 51g";;"1";"130.3704";"130.3704";"0.0000";"0";"135.0000"
"3134";"5";"438";"OstroVit - MassIt 1000g vanilla";;"1";"17.7778";"17.7778";"0.0000";"0";"14.0000"
"3135";"5";"440";"OstroVit - MassIt 1000g coconut cream";;"1";"17.7778";"17.7778";"0.0000";"0";"14.0000"
"3136";"5";"441";"OstroVit - MassIt 1000g chocolate";;"1";"17.7778";"17.7778";"0.0000";"0";"14.0000"
"3137";"5";"445";"OstroVit - MassIt 3400g chocolate";;"1";"47.7778";"47.7778";"0.0000";"0";"40.2000"
"3138";"5";"470";"Scitec - Shaker New 500ml orange";;"2";"7.6543";"15.3086";"0.0000";"0";"6.6500"
"3139";"5";"473";"Scitec - Shaker New 500ml red";;"2";"7.6543";"15.3086";"0.0000";"0";"6.6500"
"3140";"5";"474";"Scitec - Shaker New 500ml whit";;"2";"7.6543";"15.3086";"0.0000";"0";"6.6500"
"3141";"5";"475";"Scitec - Shaker New 500ml yellow";;"2";"7.6543";"15.3086";"0.0000";"0";"6.6500"
"3142";"5";"478";"Scitec - Shaker New 500ml pink";;"2";"7.6543";"15.3086";"0.0000";"0";"6.6500"
"3143";"5";"528";"Nutrend - Bcaa Liquid 1000ml orange ";;"2";"39.7531";"79.5062";"0.0000";"0";"32.0000"
"3144";"5";"529";"Nutrend - Bcaa Liquid 500ml orange ";;"1";"21.6049";"21.6049";"0.0000";"0";"16.0000"
"3145";"5";"530";"IronFlex - Creatine Monohydrate 500g watermelon";;"1";"18.3951";"18.3951";"0.0000";"0";"11.0000"
"3146";"5";"538";"IronFlex - Creatine Monohydrate 500g natural ";;"1";"18.3951";"18.3951";"0.0000";"0";"11.0000"
"3147";"5";"541";"IronFlex - Creatine Monohydrate 500g cola";;"1";"18.3951";"18.3951";"0.0000";"0";"11.0000"
"3148";"5";"543";"IronFlex - Creatine Monohydrate 500g cola lime ";;"1";"18.3951";"18.3951";"0.0000";"0";"11.0000"
"3149";"5";"551";"IronFlex - Gallon Hydrator 1l Transparent";;"1";"15.4321";"15.4321";"0.0000";"0";"10.0000"
"3150";"5";"552";"IronFlex - Shaker  500ml transporent";;"6";"6.0494";"36.1728";"0.0000";"0";"5.0000"
"3151";"5";"553";"IronFlex - WPC EDGE 900g white chocolate ";;"2";"36.6667";"73.2099";"0.0000";"0";"26.0000"
"3152";"5";"554";"IronFlex - WPC EDGE 900g vanilla ice cream ";;"1";"36.6667";"36.6667";"0.0000";"0";"26.0000"
"3153";"5";"556";"IronFlex - WPC EDGE 900g rasberry ";;"2";"36.6667";"73.2099";"0.0000";"0";"26.0000"
"3154";"5";"557";"IronFlex - WPC EDGE 900g pistachio ";;"2";"36.6667";"73.2099";"0.0000";"0";"26.0000"
"3155";"5";"559";"IronFlex - WPC EDGE 900g сreme brulee ";;"3";"36.6667";"109.8765";"0.0000";"0";"26.0000"
"3156";"5";"560";"IronFlex - WPC EDGE 900g сhocolate raspberry ";;"2";"36.6667";"73.2099";"0.0000";"0";"26.0000"
"3157";"5";"562";"IronFlex - WPC EDGE 900g banana vanilla ";;"2";"36.6667";"73.2099";"0.0000";"0";"26.0000"
"3158";"5";"563";"IronFlex - WPC EDGE 900g banana strawberry ";;"2";"36.6667";"73.2099";"0.0000";"0";"26.0000"
"3159";"5";"564";"IronFlex - WPC EDGE 900g banana apple ";;"3";"36.6667";"109.8765";"0.0000";"0";"26.0000"
"3160";"5";"590";"IronFlex - Creatine Monohydrate 500g cola cherry ";;"1";"18.3951";"18.3951";"0.0000";"0";"11.0000"
"3161";"5";"623";"Innovative Labs - Hellfire 100caps ";;"10";"71.9753";"720.0000";"0.0000";"0";"66.0000"
"3162";"5";"792";"MyProtein - BCAA 2:1:1 1000g peach mango ";;"1";"74.9383";"74.9383";"0.0000";"0";"67.0000"
"3163";"5";"793";"MyProtein - BCAA 2:1:1 1000g orange ";;"1";"74.9383";"74.9383";"0.0000";"0";"67.0000"
"3164";"5";"835";"Kevin Levrone - Pump 360g kiwi ";;"1";"49.5062";"49.5062";"0.0000";"0";"44.0000"
"3165";"5";"836";"Kevin Levrone - Pump 360g strawberry pineapple ";;"1";"49.5062";"49.5062";"0.0000";"0";"44.0000"
"3166";"5";"906";"OstroVit - WPC 80 Standart EU 900g penaut butter ";;"1";"37.4074";"37.4074";"0.0000";"0";"34.0000"
"3167";"5";"915";"OstroVit - WPC 80 Standart EU 900g pistachio cream ";;"1";"37.4074";"37.4074";"0.0000";"0";"34.0000"
"3168";"5";"937";"Mex - Size MAX 6800g Chocolate";;"1";"143.9506";"143.9506";"0.0000";"0";"135.0000"
"3169";"5";"947";"MusclePharm - Gallon water bottle 1l Neon green";;"2";"16.5432";"33.0864";"0.0000";"0";"10.0000"
"3170";"5";"980";"Vision - Whey Gainer 1000g Сoffee";;"2";"18.0247";"36.0494";"0.0000";"0";"15.5000"
"3171";"5";"983";"Vision - Whey Gainer 1000g Сoconut ";;"2";"18.0247";"36.0494";"0.0000";"0";"15.5000"
"3172";"5";"984";"Vision - Whey Gainer 1000g Banana ";;"2";"18.2716";"36.5432";"0.0000";"0";"15.5000"
"3173";"5";"985";"Vision - Whey Gainer 1000g Сhocolate ";;"1";"18.0247";"18.0247";"0.0000";"0";"15.5000"
"3174";"5";"986";"Vision - Whey Gainer 1000g Strawberry ";;"3";"18.0247";"53.9506";"0.0000";"0";"15.5000"
"3175";"5";"996";"Vision - Whey Gainer 2250g banana ";;"1";"39.2593";"39.2593";"0.0000";"0";"32.8000"
"3176";"5";"1108";"OstroVit - Mass Bulk 1000g apple pie";;"1";"30.6173";"30.6173";"0.0000";"0";"28.0000"
"3177";"5";"1110";"OstroVit - Mass Bulk 1000g banana strawberry";;"1";"30.6173";"30.6173";"0.0000";"0";"28.0000"
"3178";"5";"1111";"OstroVit - Mass Bulk 1000g pistachio cream";;"1";"30.6173";"30.6173";"0.0000";"0";"28.0000"
"3179";"5";"1112";"OstroVit - Mass Bulk 1000g white chocolate";;"1";"30.6173";"30.6173";"0.0000";"0";"28.0000"
"3180";"5";"1170";"OstroVit - WPC80.eu Good Morning 700g";;"1";"30.1235";"30.1235";"0.0000";"0";"27.0000"
"3181";"5";"1171";"OstroVit - WPC80.eu Shape 700g strawberry shake ";;"1";"30.1235";"30.1235";"0.0000";"0";"27.0000"
"3182";"5";"1213";"IronFlex - Glutamine 500g apple pear";;"1";"32.9630";"32.9630";"0.0000";"0";"24.0000"
"3183";"5";"1217";"IronFlex - Glutamine 500g cola lime";;"1";"32.9630";"32.9630";"0.0000";"0";"24.0000"
"3184";"5";"1219";"IronFlex - Glutamine 500g cola cherry";;"1";"32.9630";"32.9630";"0.0000";"0";"24.0000"
"3185";"5";"1220";"IronFlex - Glutamine 500g cola";;"1";"32.9630";"32.9630";"0.0000";"0";"24.0000"
"3186";"5";"1225";"MusclePharm - Water Bottle Arnold Series 1l neon green ";;"1";"16.5432";"16.5432";"0.0000";"0";"10.0000"
"3187";"5";"1233";"Optimum Nutrition - Water Bottle 1l pink neon";;"2";"16.5432";"33.0864";"0.0000";"0";"10.0000"
"3188";"5";"1386";"IronFlex - BCAA 2-1-1 Performance";;"4";"29.5062";"117.7778";"0.0000";"0";"23.0000"
"3189";"5";"1386";"IronFlex - BCAA 2-1-1 Performance";;"2";"29.5062";"58.8889";"0.0000";"0";"23.0000"
"3190";"5";"1386";"IronFlex - BCAA 2-1-1 Performance";;"2";"29.5062";"58.8889";"0.0000";"0";"23.0000"
"3191";"5";"1386";"IronFlex - BCAA 2-1-1 Performance";;"2";"29.5062";"58.8889";"0.0000";"0";"23.0000"
"3192";"5";"1386";"IronFlex - BCAA 2-1-1 Performance";;"4";"29.5062";"117.7778";"0.0000";"0";"23.0000"
"3193";"5";"1386";"IronFlex - BCAA 2-1-1 Performance";;"4";"29.5062";"117.7778";"0.0000";"0";"23.0000"
"3194";"5";"1386";"IronFlex - BCAA 2-1-1 Performance";;"4";"29.5062";"117.7778";"0.0000";"0";"23.0000"
"3195";"5";"1386";"IronFlex - BCAA 2-1-1 Performance";;"2";"29.5062";"58.8889";"0.0000";"0";"23.0000"
"3196";"5";"1420";"MyProtein - Water Bottle 1l neon pink";;"6";"16.5432";"99.3827";"0.0000";"0";"10.0000"
"3083";"4";"367";"OstroVit - BCAA 2-1-1 500g lemon";"66334";"5";"37.4074";"187.1605";"0.0000";"0";"32.0000"
"3084";"4";"368";"OstroVit - BCAA 2-1-1 500g orange";"6611";"7";"37.4074";"262.0988";"0.0000";"0";"32.0000"
"3085";"4";"370";"OstroVit - BCAA 2-1-1 500g natural";"4112";"5";"37.4074";"187.1605";"0.0000";"0";"32.0000"
"3086";"4";"384";"OstroVit - BCAA + Glutamine 200g orange";"1946";"1";"20.2469";"20.2469";"0.0000";"0";"17.0000"
"3087";"4";"399";"OstroVit - Pump Pre-Workout 500g lemon";;"1";"49.0123";"49.0123";"0.0000";"0";"45.0000"
"3088";"4";"404";"OstroVit - Tribulus Terrestis 90 60 tabs";;"5";"21.1111";"105.8025";"0.0000";"0";"17.5000"
"3089";"4";"416";"OstroVit - Glucosamine 210g";;"2";"20.2469";"40.4938";"0.0000";"0";"16.7000"
"3090";"4";"417";"OstroVit - Glucosamine 1000 90tab";;"1";"20.8642";"20.8642";"0.0000";"0";"17.5000"
"3091";"4";"420";"OstroVit - L-Carnitine 1000 90tabs";;"5";"20.7407";"103.4568";"0.0000";"0";"17.5000"
"3092";"4";"447";"OstroVit - Citrulline 210g natural";;"5";"31.7284";"158.3951";"0.0000";"0";"28.0000"
"3093";"4";"481";"OstroVit - Vitamin 100% 90tab";;"10";"17.0370";"170.4938";"0.0000";"0";"14.0000"
"3094";"4";"490";"OstroVit - Piperine 95 90tab";;"1";"17.7778";"17.7778";"0.0000";"0";"14.0000"
"3095";"4";"505";"OstroVit - Shaker Premium 500ml black";;"2";"9.7531";"19.6296";"0.0000";"0";"9.5000"
"3096";"4";"510";"OstroVit - Creatine 300g mango ";;"1";"12.5926";"12.5926";"0.0000";"0";"11.0000"
"3097";"4";"511";"OstroVit - Creatine 300g cherry ";;"1";"12.5926";"12.5926";"0.0000";"0";"11.0000"
"3098";"4";"515";"OstroVit - Creatine 300g orange ";;"1";"12.5926";"12.5926";"0.0000";"0";"11.0000"
"3099";"4";"907";"OstroVit - WPC 80 Standart EU 2270g bubble gum ";;"5";"92.5926";"463.0864";"0.0000";"0";"86.0000"
"3100";"4";"909";"OstroVit - WPC 80 Standart EU 900g apple pie";;"3";"37.4074";"112.0988";"0.0000";"0";"34.0000"
"3101";"4";"912";"OstroVit - WPC 80 Standart EU 900g biscuit dream ";;"1";"37.4074";"37.4074";"0.0000";"0";"34.0000"
"3102";"4";"1104";"OstroVit - Fat Burner 90tabs ";;"2";"27.6543";"55.3086";"0.0000";"0";"24.5500"
"3103";"4";"1105";"OstroVit - D.A.A 100% pure 200g ";;"1";"20.2469";"20.2469";"0.0000";"0";"16.7000"
"3104";"4";"1170";"OstroVit - WPC80.eu Good Morning 700g";;"4";"30.1235";"120.6173";"0.0000";"0";"27.0000"
"3105";"4";"1342";"OstroVit - Smart Shaker 400ml Red";;"2";"10.1235";"20.3704";"0.0000";"0";"9.5000"
"3106";"4";"1343";"OstroVit - Smart Shaker 400ml Blue";;"2";"10.1235";"20.3704";"0.0000";"0";"9.5000"
"3107";"4";"1345";"OstroVit - Smart Shaker 400ml Orange";;"2";"10.1235";"20.3704";"0.0000";"0";"9.5000"
"3108";"4";"1401";"OstroVit - Omega 3 90caps ";;"2";"17.0370";"34.0741";"0.0000";"0";"13.3000"
"3109";"4";"1403";"OstroVit - NAC 90tabs ";;"1";"24.3210";"24.3210";"0.0000";"0";"24.0000"
"2873";"2";"100";"Extrifit - Carnitin 120000mg Liquid 1000ml";"411";"2";"39.8765";"79.7531";"0.0000";"0";"37.4000"
"2874";"2";"100";"Extrifit - Carnitin 120000mg Liquid 1000ml";"411";"2";"39.8765";"79.7531";"0.0000";"0";"37.4000"
"2875";"2";"100";"Extrifit - Carnitin 120000mg Liquid 1000ml";"411";"2";"39.8765";"79.7531";"0.0000";"0";"37.4000"
"2876";"2";"100";"Extrifit - Carnitin 120000mg Liquid 1000ml";"411";"1";"39.8765";"39.8765";"0.0000";"0";"37.4000"
"2877";"2";"100";"Extrifit - Carnitin 120000mg Liquid 1000ml";"411";"1";"39.8765";"39.8765";"0.0000";"0";"37.4000"
"2878";"2";"100";"Extrifit - Carnitin 120000mg Liquid 1000ml";"411";"1";"39.8765";"39.8765";"0.0000";"0";"37.4000"
"2879";"2";"100";"Extrifit - Carnitin 120000mg Liquid 1000ml";"411";"1";"39.8765";"39.8765";"0.0000";"0";"37.4000"
"2880";"2";"100";"Extrifit - Carnitin 120000mg Liquid 1000ml";"411";"2";"39.8765";"79.7531";"0.0000";"0";"37.4000"
"2881";"2";"107";"ActivLab - BCAA Xtra instant 500g blackcurrant ";"12314";"1";"44.1975";"44.1975";"0.0000";"0";"38.0000"
"2882";"2";"108";"ActivLab - BCAA Xtra instant 500g cola ";"12314";"1";"44.1975";"44.1975";"0.0000";"0";"38.0000"
"2883";"2";"109";"ActivLab - BCAA Xtra instant 500g kiwi ";"12314";"1";"44.1975";"44.1975";"0.0000";"0";"38.0000"
"2884";"2";"110";"ActivLab - BCAA Xtra instant 500g pear ";"12314";"1";"44.1975";"44.1975";"0.0000";"0";"38.0000"
"2885";"2";"114";"ActivLab - BCAA Xtra instant 500g cherry ";"12314";"1";"44.1975";"44.1975";"0.0000";"0";"38.0000"
"2886";"2";"117";"ActivLab - BCAA Xtra instant 500g blueberry ";"12314";"1";"44.1975";"44.1975";"0.0000";"0";"38.0000"
"2887";"2";"124";"ActivLab - Creatine Powder 500g Cherry ";"12314";"1";"21.4815";"21.4815";"0.0000";"0";"18.0000"
"2888";"2";"128";"ActivLab - Creatine Powder  500g Natural ";"12314";"2";"21.4815";"42.8395";"0.0000";"0";"18.0000"
"2889";"2";"129";"ActivLab - Creatine Powder 500g Orange ";"12314";"1";"21.4815";"21.4815";"0.0000";"0";"18.0000"
"2890";"2";"166";"ActivLab - Mass Up 1200g bananа ";"12314";"3";"17.1605";"51.6049";"0.0000";"0";"13.0000"
"2891";"2";"168";"ActivLab - Mass Up 1200g forest fruit ";"12314";"2";"17.1605";"34.3210";"0.0000";"0";"13.0000"
"2892";"2";"169";"ActivLab - Mass Up 1200g hazelnut ";"12314";"2";"17.1605";"34.3210";"0.0000";"0";"13.0000"
"2893";"2";"171";"ActivLab - Mass Up 1200g chocolate ";"12314";"5";"17.1605";"85.9259";"0.0000";"0";"13.0000"
"2894";"2";"172";"ActivLab - Mass Up 1200g vanilla";"12314";"3";"17.1605";"51.6049";"0.0000";"0";"13.0000"
"2895";"2";"173";"ActivLab - Mass Up 1200g strawberry ";"12314";"2";"17.1605";"34.3210";"0.0000";"0";"13.0000"
"2896";"2";"179";"ActivLab - Mass Up 3500g vanilla ";"12314";"1";"45.4321";"45.4321";"0.0000";"0";"36.0000"
"2897";"2";"180";"ActivLab - Mass Up 3500g chocolate ";"12314";"1";"45.4321";"45.4321";"0.0000";"0";"36.0000"
"2898";"2";"182";"ActivLab - Mass Up 3500g strawberry";"12314";"1";"45.4321";"45.4321";"0.0000";"0";"36.0000"
"2899";"2";"183";"ActivLab - Mass Up 3500g banana ";"12314";"1";"45.4321";"45.4321";"0.0000";"0";"36.0000"
"2900";"2";"185";"ActivLab - BCAA Xtra 800g strawberry ";"12314";"1";"58.8889";"58.8889";"0.0000";"0";"53.0000"
"2901";"2";"188";"ActivLab - BCAA Xtra 800g pear ";"12314";"1";"58.8889";"58.8889";"0.0000";"0";"53.0000"
"2902";"2";"198";"ActivLab - BCAA Xtra Shot ( 1x 80ml ) orange";"12314";"12";"1.8519";"21.6049";"0.0000";"0";"4.4000"
"2903";"2";"221";"Nutrend - Flexit Drink 400g ";"1516";"3";"1.8519";"5.6790";"0.0000";"0";"34.0000"
"2904";"2";"221";"Nutrend - Flexit Drink 400g ";"1516";"2";"1.8519";"3.7037";"0.0000";"0";"34.0000"
"2905";"2";"221";"Nutrend - Flexit Drink 400g ";"1516";"1";"1.8519";"1.8519";"0.0000";"0";"34.0000"
"2906";"2";"225";"Nutrend - Flexit Drink Gold 400g ";"1517";"4";"2.4691";"9.7531";"0.0000";"0";"48.0000"
"2907";"2";"225";"Nutrend - Flexit Drink Gold 400g ";"1517";"1";"2.4691";"2.4691";"0.0000";"0";"48.0000"
"2908";"2";"225";"Nutrend - Flexit Drink Gold 400g ";"1517";"1";"2.4691";"2.4691";"0.0000";"0";"48.0000"
"2909";"2";"236";"Gold Star - Black Annis DMAA 150g fruit punsh ";"12314";"2";"35.3086";"70.6173";"0.0000";"0";"36.5000"
"2910";"2";"238";"Gold Star - Black Annis DMAA 150g green apple ";"12314";"2";"35.3086";"70.6173";"0.0000";"0";"36.5000"
"2911";"2";"240";"Gold Star - Black Annis DMAA 150g watermelon ";"12314";"2";"35.3086";"70.6173";"0.0000";"0";"36.5000"
"2912";"2";"246";"Gold Star - EPH Bomb 60caps";"12314";"2";"39.2593";"78.5185";"0.0000";"0";"35.8000"
"2913";"2";"291";"Megabol - Testosterol 250  30caps";"12314";"5";"11.6049";"57.7778";"0.0000";"0";"10.0000"
"2914";"2";"297";"Megabol - Gainer 737 (30% protein) 3000g cappuccino ";"12314";"1";"46.2963";"46.2963";"0.0000";"0";"43.0000"
"2915";"2";"367";"OstroVit - BCAA 2-1-1 500g lemon";"66334";"3";"37.4074";"112.3457";"0.0000";"0";"32.0000"
"2916";"2";"368";"OstroVit - BCAA 2-1-1 500g orange";"6611";"5";"37.4074";"187.1605";"0.0000";"0";"32.0000"
"2917";"2";"370";"OstroVit - BCAA 2-1-1 500g natural";"4112";"5";"37.4074";"187.1605";"0.0000";"0";"32.0000"
"2918";"2";"386";"OstroVit - BCAA Instant 400g watermelon";"1950";"2";"38.6420";"77.4074";"0.0000";"0";"35.0000"
"2919";"2";"387";"OstroVit - BCAA Instant 400g mango";"1951";"2";"38.6420";"77.4074";"0.0000";"0";"35.0000"
"2920";"2";"388";"OstroVit - BCAA Instant 400g green apple ";"1952";"2";"38.6420";"77.4074";"0.0000";"0";"35.0000"
"2921";"2";"389";"OstroVit - BCAA Instant 400g cola";"1953";"2";"38.6420";"77.4074";"0.0000";"0";"35.0000"
"2922";"2";"477";"OstroVit - Green Tea 1000 90tab";;"4";"26.5432";"106.1728";"0.0000";"0";"24.6000"
"2923";"2";"497";"OstroVit - Creatine 500g watermelon";;"1";"19.0123";"19.0123";"0.0000";"0";"16.5000"
"2924";"2";"519";"OstroVit - Creatine 500g apple ";;"1";"19.0123";"19.0123";"0.0000";"0";"16.5000"
"2925";"2";"553";"IronFlex - WPC EDGE 900g white chocolate ";;"2";"36.6667";"73.2099";"0.0000";"0";"26.0000"
"2926";"2";"554";"IronFlex - WPC EDGE 900g vanilla ice cream ";;"5";"36.6667";"183.2099";"0.0000";"0";"26.0000"
"2927";"2";"556";"IronFlex - WPC EDGE 900g rasberry ";;"2";"36.6667";"73.2099";"0.0000";"0";"26.0000"
"2928";"2";"561";"IronFlex - WPC EDGE 900g Chocolate peanut butter ";;"7";"36.6667";"256.4198";"0.0000";"0";"26.0000"
"2929";"2";"562";"IronFlex - WPC EDGE 900g banana vanilla ";;"3";"36.6667";"109.8765";"0.0000";"0";"26.0000"
"2930";"2";"563";"IronFlex - WPC EDGE 900g banana strawberry ";;"1";"36.6667";"36.6667";"0.0000";"0";"26.0000"
"2931";"2";"564";"IronFlex - WPC EDGE 900g banana apple ";;"2";"36.6667";"73.2099";"0.0000";"0";"26.0000"
"2932";"2";"593";"Blastex - Bcaa Xline 300g lemon ";;"1";"23.0864";"23.0864";"0.0000";"0";"22.5000"
"2933";"2";"594";"Blastex - Bcaa Xline 300g orange ";;"1";"23.0864";"23.0864";"0.0000";"0";"22.5000"
"2934";"2";"595";"Blastex - Bcaa Xline 300g grapefruit ";;"1";"23.0864";"23.0864";"0.0000";"0";"22.5000"
"2935";"2";"596";"Blastex - Bcaa Xline 300g blackcurrant";;"1";"23.0864";"23.0864";"0.0000";"0";"22.5000"
"2936";"2";"597";"Blastex - Bcaa Xline 300g cherry ";;"1";"23.0864";"23.0864";"0.0000";"0";"22.5000"
"2937";"2";"600";"Blastex - Bcaa Xline 300g apple ";;"1";"23.0864";"23.0864";"0.0000";"0";"22.5000"
"2938";"2";"601";"Blastex - Bcaa Xline 300g pineapple ";;"1";"23.0864";"23.0864";"0.0000";"0";"22.5000"
"2939";"2";"605";"Blastex - Bcaa Xline 1000g cherry ";;"1";"66.2963";"66.2963";"0.0000";"0";"64.5000"
"2940";"2";"608";"Blastex - Bcaa Xline 1000g cola ";;"1";"66.2963";"66.2963";"0.0000";"0";"64.5000"
"2941";"2";"609";"Blastex - Glutamine 300g apple ";;"1";"18.2716";"18.2716";"0.0000";"0";"17.3000"
"2942";"2";"610";"Blastex - Glutamine 300g cola";;"1";"18.2716";"18.2716";"0.0000";"0";"17.3000"
"2943";"2";"611";"Blastex - Glutamine 300g pineapple ";;"1";"18.2716";"18.2716";"0.0000";"0";"17.3000"
"2944";"2";"613";"Blastex - Glutamine 300g blackcurrant ";;"1";"18.2716";"18.2716";"0.0000";"0";"17.3000"
"2945";"2";"615";"Blastex - Glutamine 500g cola ";;"1";"29.8765";"29.8765";"0.0000";"0";"29.0000"
"2946";"2";"623";"Innovative Labs - Hellfire 100caps ";;"2";"71.9753";"143.9506";"0.0000";"0";"66.0000"
"2947";"2";"625";"Innovative Labs - Black Mamba 90caps ";;"1";"71.9753";"71.9753";"0.0000";"0";"66.0000"
"2948";"2";"633";"Scitec - 100% Whey Protein Prof 2820g chocolate";;"2";"144.4444";"288.8889";"0.0000";"0";"148.0000"
"2949";"2";"693";"MyProtein - Impact Whey 2500g сookies сream";;"1";"110.3704";"110.3704";"0.0000";"0";"102.0000"
"2950";"2";"696";"MyProtein - Impact Whey 2500g strawberry cream";;"1";"110.3704";"110.3704";"0.0000";"0";"102.0000"
"2951";"2";"701";"MyProtein - Omega 3-6-9 120caps";;"8";"25.6790";"205.1852";"0.0000";"0";"21.1000"
"2952";"2";"738";"MyProtein - Micellar Casein 2500g vanilla ";;"1";"120.2469";"120.2469";"0.0000";"0";"107.0000"
"2953";"2";"822";"Kevin Levrone - Whey Supreme 2270g сookies white cream ";;"2";"117.0370";"233.9506";"0.0000";"0";"103.0000"
"2954";"2";"823";"Kevin Levrone - Iso Whey 2270g chocolate ";;"1";"142.2222";"142.2222";"0.0000";"0";"126.0000"
"2955";"2";"825";"Kevin Levrone - Iso Whey 2270g strawberry ";;"1";"142.2222";"142.2222";"0.0000";"0";"126.0000"
"2956";"2";"826";"Kevin Levrone - Whey Supreme 2270g chocolate ";;"2";"117.0370";"233.9506";"0.0000";"0";"103.0000"
"2957";"2";"828";"Kevin Levrone - Whey Supreme 2270g white chocolate ";;"2";"117.0370";"233.9506";"0.0000";"0";"103.0000"
"2958";"2";"830";"Kevin Levrone - Whey Supreme 2270g strawberry ";;"1";"117.0370";"117.0370";"0.0000";"0";"103.0000"
"2959";"2";"835";"Kevin Levrone - Pump 360g kiwi ";;"1";"49.5062";"49.5062";"0.0000";"0";"44.0000"
"2960";"2";"836";"Kevin Levrone - Pump 360g strawberry pineapple ";;"1";"49.5062";"49.5062";"0.0000";"0";"44.0000"
"2961";"2";"837";"Kevin Levrone - Pump 360g red grapefruit ";;"1";"49.5062";"49.5062";"0.0000";"0";"44.0000"
"2962";"2";"839";"MyProtein - Milk Protein Smooth 4000g vanilla";;"2";"151.6049";"303.3333";"0.0000";"0";"138.0000"
"2963";"2";"840";"MyProtein - Milk Protein Smooth 4000g strawberry cream";;"3";"151.6049";"454.9383";"0.0000";"0";"138.0000"
"2964";"2";"841";"MyProtein - Milk Protein Smooth 4000g chocolate smooth";;"4";"151.6049";"606.5432";"0.0000";"0";"138.0000"
"2965";"2";"853";"Kevin Levrone - Levro mono 300g ";;"1";"22.7160";"22.7160";"0.0000";"0";"21.0000"
"2966";"2";"897";"OstroVit - WPC 80.eu Instant 2270g strawberry shake ";;"1";"95.0617";"95.0617";"0.0000";"0";"86.0000"
"2967";"2";"900";"OstroVit - WPC 80.eu Instant  2270g french vanilla ";;"1";"95.0617";"95.0617";"0.0000";"0";"86.0000"
"2968";"2";"901";"OstroVit - WPC 80.eu Instant 2270g cookies cream ";;"1";"95.0617";"95.0617";"0.0000";"0";"86.0000"
"2969";"2";"902";"OSTROVIT - WPC 80.eu Instant 2270g  coconut cream ";;"2";"95.0617";"190.1235";"0.0000";"0";"86.0000"
"2970";"2";"905";"OstroVit - WPC 80 Standart EU 900g creame brulle ";;"2";"37.4074";"74.6914";"0.0000";"0";"34.0000"
"2971";"2";"906";"OstroVit - WPC 80 Standart EU 900g penaut butter ";;"2";"37.4074";"74.6914";"0.0000";"0";"34.0000"
"2972";"2";"907";"OstroVit - WPC 80 Standart EU 2270g bubble gum ";;"1";"92.5926";"92.5926";"0.0000";"0";"86.0000"
"2973";"2";"909";"OstroVit - WPC 80 Standart EU 900g apple pie";;"2";"37.4074";"74.6914";"0.0000";"0";"34.0000"
"2974";"2";"914";"OstroVit - WPC 80 Standart EU 900g white chocolate";;"9";"37.4074";"336.1728";"0.0000";"0";"34.0000"
"2975";"2";"916";"OstroVit - WPC 80 Standart EU 900g hazelnut ";;"2";"37.4074";"74.6914";"0.0000";"0";"34.0000"
"2976";"2";"917";"OstroVit - WPC 80 Standart EU 900g tiramisu ";;"2";"37.4074";"74.6914";"0.0000";"0";"34.0000"
"2977";"2";"919";"OstroVit - WPC 80 Standart EU 900g vanilla ";;"3";"37.4074";"112.0988";"0.0000";"0";"34.0000"
"2978";"2";"920";"OstroVit - WPC 80 Standart EU 900g banana ";;"4";"37.4074";"149.3827";"0.0000";"0";"34.0000"
"2979";"2";"933";"Kevin Levrone - Levrone BCAA 4:1:1 300 tabs";;"4";"49.0123";"195.8025";"0.0000";"0";"44.0000"
"2980";"2";"934";"Kevin Levrone - Levro Shield 300g ";;"1";"28.0247";"28.0247";"0.0000";"0";"27.0000"
"2981";"2";"945";"Extrifit - Creatine  400g ";;"2";"24.3210";"48.6420";"0.0000";"0";"27.0000"
"2982";"2";"1003";"Scitec - 100% Whey Protein Prof 2820g chocolate hazelnut";;"3";"144.4444";"433.3333";"0.0000";"0";"148.0000"
"2983";"2";"1024";"Nutrend - Iso Drinx 420g grapefruit ";;"1";"27.0370";"27.0370";"0.0000";"0";"23.0000"
"2984";"2";"1113";"OstroVit - BCAA MAX Instant 400g orange ";;"1";"38.6420";"38.6420";"0.0000";"0";"35.0000"
"2985";"2";"1116";"OstroVit - BCAA MAX Instant 400g peach";;"1";"38.6420";"38.6420";"0.0000";"0";"35.0000"
"2986";"2";"1166";"OstroVit - Probiotic 6+ 30caps";;"2";"17.7778";"35.5556";"0.0000";"0";"14.0000"
"2987";"2";"1180";"OstroVit - Waxymaize 1000g chocolate ";;"2";"15.4321";"30.7407";"0.0000";"0";"11.6000"
"2998";"2";"1335";"OstroVit - Sauce Zero Kalorii Kokosowy 500ml coconut";;"9";"5.9259";"53.4568";"0.0000";"0";"6.0000"
"2999";"2";"1354";"BSN - Syntha 6 Edge 400g vanilla";;"3";"25.1852";"75.5556";"0.0000";"0";"24.0000"
"3000";"2";"1356";"Blastex - L-Сarnitine 90 caps";;"1";"23.0864";"23.0864";"0.0000";"0";"25.7000"
"3001";"2";"1360";"Blastex - Bcaa Xline 1000g grape";;"1";"66.2963";"66.2963";"0.0000";"0";"64.5000"
"3002";"2";"1379";"ActivLab - Carnitin Shot ( 1 x 80ml )";;"12";"1.8519";"21.6049";"0.0000";"0";"3.0000"
"3003";"2";"1385";"Isostar - Bidon Isostar 1000ml yellow";;"9";"7.4074";"66.4198";"0.0000";"0";"7.0000"
"3004";"2";"1386";"IronFlex - BCAA 2-1-1 Performance";;"2";"29.5062";"58.8889";"0.0000";"0";"23.0000"
"3005";"2";"1386";"IronFlex - BCAA 2-1-1 Performance";;"2";"29.5062";"58.8889";"0.0000";"0";"23.0000"
"3006";"2";"1386";"IronFlex - BCAA 2-1-1 Performance";;"1";"29.5062";"29.5062";"0.0000";"0";"23.0000"
"3007";"2";"1386";"IronFlex - BCAA 2-1-1 Performance";;"2";"29.5062";"58.8889";"0.0000";"0";"23.0000"
"3008";"2";"1386";"IronFlex - BCAA 2-1-1 Performance";;"2";"29.5062";"58.8889";"0.0000";"0";"23.0000"
"3009";"2";"1386";"IronFlex - BCAA 2-1-1 Performance";;"2";"29.5062";"58.8889";"0.0000";"0";"23.0000"
"3010";"2";"1386";"IronFlex - BCAA 2-1-1 Performance";;"1";"29.5062";"29.5062";"0.0000";"0";"23.0000"
"3011";"2";"1387";"IronFlex - Glutamine 500g ";;"1";"29.8765";"29.8765";"0.0000";"0";"24.0000"
"3012";"2";"1387";"IronFlex - Glutamine 500g ";;"1";"29.8765";"29.8765";"0.0000";"0";"24.0000"
"3013";"2";"1387";"IronFlex - Glutamine 500g ";;"1";"29.8765";"29.8765";"0.0000";"0";"24.0000"
"3014";"2";"1387";"IronFlex - Glutamine 500g ";;"1";"29.8765";"29.8765";"0.0000";"0";"24.0000"
"3015";"2";"1387";"IronFlex - Glutamine 500g ";;"1";"29.8765";"29.8765";"0.0000";"0";"24.0000"
"3016";"2";"1387";"IronFlex - Glutamine 500g ";;"1";"29.8765";"29.8765";"0.0000";"0";"24.0000"
"3017";"2";"1391";"MyProtein - Impact Whey 2500g strawberry shortcake";;"1";"110.3704";"110.3704";"0.0000";"0";"102.0000"
"3018";"2";"1393";"MyProtein - Impact Whey 2500g vanilla cookie";;"1";"110.3704";"110.3704";"0.0000";"0";"102.0000"
"3019";"2";"1399";"Kevin Levrone - Levro Supreme Bar 80g milk chocolate peanut";;"12";"4.5679";"54.5679";"0.0000";"0";"1.0000"
"3020";"2";"1407";"OstroVit - Coconut Oil ( Olej Kokosowy ) 900g ";;"4";"19.6296";"78.5185";"0.0000";"0";"15.5000"
"2867";"1";"107";"ActivLab - BCAA Xtra instant 500g blackcurrant ";"12314";"1";"45.6790";"45.6790";"0.0000";"0";"38.0000"
"2868";"1";"108";"ActivLab - BCAA Xtra instant 500g cola ";"12314";"1";"45.6790";"45.6790";"0.0000";"0";"38.0000"
"2869";"1";"347";"NUTREND - Excelent Protein Bar  40g Lemon  curd  raspberry with cranberry ";"12314";"8";"1.2346";"10.0000";"0.0000";"0";"3.0000"
"2870";"1";"826";"Kevin Levrone - Whey Supreme 2270g chocolate ";;"1";"120.8642";"120.8642";"0.0000";"0";"103.0000"
"2871";"1";"830";"Kevin Levrone - Whey Supreme 2270g strawberry ";;"1";"120.8642";"120.8642";"0.0000";"0";"103.0000"
"2872";"1";"946";"Extrifit - BCAA 2-1-1  240tab  ";;"10";"21.3580";"213.9506";"0.0000";"0";"23.0000"
